StayFree Report
…
Load the libraries

require(tidyverse) #for tidy format operations
require(hms) #for time related operatins
require(patchwork) #for multiple plots

Clean the data

report_raw <-
  readxl::read_excel("HistoryReport (2).xls") 

report_raw

## # A tibble: 68 x 9
##    ...1         C    
##    <chr>    <chr>  <chr>   <chr>   <chr>   <chr>       <chr>       <chr>   <chr>
##  1  1 25 0      0      0      0          1 13      0      2 3
##  2    9     0      42     2 5   17         5 53      19     9 2
##  3 Chrome   2 10 36     1      26 4  5 45      7 15      4 4   45 
##  4      27    1 20  0      30     37         28         4 10  7 3
##  5  0     19     0      0      20         0          0      40  
##  6  0     0      0      0      0          0          0      0   
##  7      0     0      0      0      0          0          0      0   
##  8 Play  22    2 17  0      1 7   0          1          0      3 4
##  9     0     0      0      0      0          0          0      0   
## 10  0     0      3      3      0          0          0      6   
## #  with 58 more rows
…
report_clean

## # A tibble: 448 x 3
##    app_name  day          time
##    <chr>     <date>      <dbl>
##  1  2020-06-17 0.0236
##  2  2020-06-18 0     
##  3  2020-06-19 0     
##  4  2020-06-20 0     
##  5  2020-06-21 0     
##  6  2020-06-22 0.0203
##  7  2020-06-16 0     
##  8     2020-06-17 0.0025
##  9     2020-06-18 0     
## 10     2020-06-19 0.0117
## #  with 438 more rows
…
